…
You can find these and more code examples for exploring
durbanplasticwaste in vignette(“examples”).

``` r
library(durbanplasticwaste)
library(dplyr)

litterboom_counts |> 
  group_by(group) |> 
  summarise(
    sum = sum(count)
  ) |> 
  arrange(desc(sum))
#> # A tibble: 40 × 2
#>    group                               sum
#>    <chr>                             <dbl>
#>  1 Coca Cola Beverages South Africa  4030 
#>  2 United National Breweries PTY LTD 2618 
#>  3 OTHER                             2464.
#>  4 unidentifiable                    1202 
#>  5 Bevco - The Beverage Company       804 
#>  6 Clover Industries LTD              737 
#>  7 Unilever                           442 
#>  8 Ekhamanzi Springs                  306 
#>  9 Amasi                              304 
#> 10 Tiger Brands                       232 
#> # … with 30 more rows
```
…
